﻿C50A1EB4-428D-4767-BD60-51EABEF72A88:Default Playlist
7699C7CC-1700-4EFE-85B0-4F109952115E:Nhac Hoa
1CE88FAF-E234-45E5-A897-39503B4C45BB:MIDI
3BB98470-A8A9-4A3B-9631-F9D788084A10:JPop
34A6D177-2D88-4AC6-BDFF-EB1EFBB83B43:Others
